NAME	SYMBOL	RANK IN GENE LIST	RANK METRIC SCORE	RUNNING ES	CORE ENRICHMENT	
row_0	HLA-DRB1	0	1.492027997970581	0.046905566	Yes	
row_1	HLA-DPB1	1	1.3654574155807495	0.089832075	Yes	
row_2	HLA-DPA1	4	1.2495719194412231	0.12901045	Yes	
row_3	HLA-DQA1	6	1.1442430019378662	0.16493005	Yes	
row_4	HLA-DRA	14	1.0097196102142334	0.19630559	Yes	
row_5	HLA-DQA2	27	0.8526028394699097	0.2224793	Yes	
row_6	HLA-DMA	29	0.8190737962722778	0.2481764	Yes	
row_7	ARPC3	44	0.7629108428955078	0.27142543	Yes	
row_8	ITGA4	65	0.6662702560424805	0.29132134	Yes	
row_9	HLA-DQB1	78	0.6329793334007263	0.31059065	Yes	
row_10	HLA-DRB5	82	0.6270195841789246	0.33014506	Yes	
row_11	HLA-F	121	0.5530571341514587	0.34553692	Yes	
row_12	IQGAP1	149	0.5246588587760925	0.36061347	Yes	
row_13	HLA-DQB2	174	0.4960117042064667	0.3749469	Yes	
row_14	ARPC4	183	0.4879295825958252	0.3898662	Yes	
row_15	MYL6	208	0.4791039228439331	0.4036681	Yes	
row_16	CD3G	247	0.4527817964553833	0.41590753	Yes	
row_17	GSK3B	266	0.4457928240299225	0.42897722	Yes	
row_18	CLIP1	279	0.4389190673828125	0.44214576	Yes	
row_19	ITGB7	295	0.431389719247818	0.4549201	Yes	
row_20	ITGAL	296	0.4311063587665558	0.468473	Yes	
row_21	HLA-DMB	343	0.4143863916397095	0.47908542	Yes	
row_22	ARPC2	367	0.40287837386131287	0.49054348	Yes	
row_23	MAPK8	385	0.39571133255958557	0.5020912	Yes	
row_24	ATF2	412	0.38812196254730225	0.5129279	Yes	
row_25	ACTR2	498	0.3687392771244049	0.5200579	Yes	
row_26	ARPC5	503	0.36730900406837463	0.5313952	Yes	
row_27	ARPC1B	573	0.3544941246509552	0.53891736	Yes	
row_28	MYL12B	610	0.34901291131973267	0.54799956	Yes	
row_29	ARPC5L	829	0.31327423453330994	0.54640394	Yes	
row_30	HLA-G	998	0.2919010818004608	0.5467612	Yes	
row_31	ITGAE	1017	0.29042330384254456	0.5549464	Yes	
row_32	CFL1	1031	0.2896970212459564	0.56337136	Yes	
row_33	VAV1	1428	0.2528839111328125	0.5505329	Yes	
row_34	RAF1	1623	0.2384209930896759	0.54784393	Yes	
row_35	PAK1	1656	0.2357567399740219	0.5535757	Yes	
row_36	HLA-C	1839	0.22552604973316193	0.55111134	Yes	
row_37	ITGA2	1965	0.21844851970672607	0.55141675	Yes	
row_38	CDC42	2013	0.21568173170089722	0.5557299	Yes	
row_39	HLA-DOA	2039	0.21427373588085175	0.56115377	Yes	
row_40	CD3D	2214	0.20402441918849945	0.5584334	Yes	
row_41	ITGA1	2267	0.2006392776966095	0.5620112	Yes	
row_42	ITGB1	2268	0.2006240040063858	0.5683183	Yes	
row_43	HLA-A	2280	0.1999693214893341	0.57402736	Yes	
row_44	DIAPH1	2309	0.19853152334690094	0.57879883	Yes	
row_45	ITGAM	2482	0.18883171677589417	0.5757059	Yes	
row_46	VAV2	2499	0.18794381618499756	0.58077437	Yes	
row_47	PPP1R12A	2950	0.16322143375873566	0.5622824	Yes	
row_48	HLA-B	2993	0.16088032722473145	0.5651352	Yes	
row_49	APC	3045	0.1581891030073166	0.567431	Yes	
row_50	ACTR3	3072	0.15684036910533905	0.5709967	Yes	
row_51	ITK	3097	0.15546473860740662	0.57462424	Yes	
row_52	CD3E	3236	0.1475326269865036	0.5720178	Yes	
row_53	ARHGEF6	3241	0.1473817527294159	0.5764411	Yes	
row_54	CD247	3243	0.1472843587398529	0.58101887	Yes	
row_55	FGD3	3466	0.13644613325595856	0.57365423	No	
row_56	PAK2	3544	0.13253751397132874	0.5737787	No	
row_57	HLA-E	3751	0.12168323248624802	0.56678987	No	
row_58	WIPF1	3895	0.11510176956653595	0.56290144	No	
row_59	EXOC1	3913	0.11441013962030411	0.56560576	No	
row_60	B2M	4059	0.10678593069314957	0.5613509	No	
row_61	ITGAV	4101	0.1051117330789566	0.562503	No	
row_62	PRKCZ	4162	0.10190033912658691	0.5625567	No	
row_63	RALA	4276	0.0969463661313057	0.55967236	No	
row_64	ITGB8	4402	0.09070400148630142	0.55596185	No	
row_65	WAS	4512	0.08561019599437714	0.55293113	No	
row_66	EXOC8	4534	0.0842898041009903	0.5544786	No	
row_67	MAPK13	4876	0.06616131216287613	0.5386573	No	
row_68	PARD6A	4879	0.06598016619682312	0.5406266	No	
row_69	EXOC3	5001	0.05894877016544342	0.53612775	No	
row_70	EXOC5	5296	0.04191078990697861	0.5220114	No	
row_71	JUN	5402	0.03542771935462952	0.51761305	No	
row_72	MYL12A	5603	0.023228300735354424	0.5078441	No	
row_73	ITGA5	5684	0.018107475712895393	0.50421363	No	
row_74	APC2	6173	0.0	0.4785955	No	
row_75	CDC42EP5	6366	0.0	0.46851623	No	
row_76	FGD1	6714	0.0	0.45030004	No	
row_77	IQGAP3	6971	0.0	0.436861	No	
row_78	ITGA2B	6978	0.0	0.43654603	No	
row_79	ITGA9	6979	0.0	0.43654603	No	
row_80	ITGAD	6980	0.0	0.43654603	No	
row_81	ITGB4	6982	0.0	0.43649355	No	
row_82	MAPK12	7174	0.0	0.42646676	No	
row_83	MYL2	7254	0.0	0.42231956	No	
row_84	MYL3	7255	0.0	0.42231956	No	
row_85	MAP3K11	8967	-0.01772921532392502	0.33305594	No	
row_86	PPP1R12B	9024	-0.022563014179468155	0.33082548	No	
row_87	ITGA11	9221	-0.023877263069152832	0.32128686	No	
row_88	ITGB6	9359	-0.02428496442735195	0.31485835	No	
row_89	ITGA8	9995	-0.025127461180090904	0.2823132	No	
row_90	ITGA7	10569	-0.025720423087477684	0.25304148	No	
row_91	MAP2K4	10913	-0.03252284973859787	0.23605771	No	
row_92	ITGB2	10938	-0.03411008045077324	0.23587014	No	
row_93	MYLK	11354	-0.03961041942238808	0.21532947	No	
row_94	MAPK10	11608	-0.040030933916568756	0.2033064	No	
row_95	SRC	12300	-0.05102692171931267	0.1686357	No	
row_96	MYLPF	12552	-0.05182400718331337	0.15708835	No	
row_97	PARD3	12794	-0.05233384668827057	0.14608201	No	
row_98	PPP1CB	12945	-0.053187642246484756	0.13987967	No	
row_99	TNK2	13029	-0.06040996313095093	0.13742162	No	
row_100	DIAPH3	13255	-0.06197867915034294	0.12755844	No	
row_101	EXOC2	13630	-0.06746704131364822	0.11004585	No	
row_102	ITGA10	13727	-0.07065695524215698	0.10722749	No	
row_103	ITGAX	14227	-0.07908161729574203	0.08351801	No	
row_104	ITGB5	14389	-0.07990190386772156	0.07757804	No	
row_105	CDC42EP2	14486	-0.08049091696739197	0.07506883	No	
row_106	MYL9	14613	-0.08718766272068024	0.071195275	No	
row_107	FNBP1L	14775	-0.08789953589439392	0.06550673	No	
row_108	CDC42BPA	14813	-0.08818434178829193	0.066336654	No	
row_109	IQGAP2	15111	-0.09756758064031601	0.053812563	No	
row_110	MYL5	15156	-0.10067790001630783	0.054667786	No	
row_111	MAPK11	15204	-0.10117390751838684	0.055381116	No	
row_112	FCER1G	15606	-0.10904134809970856	0.037758123	No	
row_113	LLGL1	15658	-0.11378464102745056	0.03865792	No	
row_114	HLA-DOB	15674	-0.11399736255407333	0.041454263	No	
row_115	MAPK9	15796	-0.11516111344099045	0.038722597	No	
row_116	PAK4	16359	-0.1371966302394867	0.013532848	No	
row_117	PAK3	16403	-0.1376611739397049	0.0156032285	No	
row_118	LIMK1	16472	-0.1422160416841507	0.016504398	No	
row_119	RASA1	16768	-0.15328988432884216	0.005837065	No	
row_120	EXOC4	16830	-0.15725062787532806	0.007578357	No	
row_121	MYL6B	17162	-0.17455236613750458	-0.0043104007	No	
row_122	ITGA3	17241	-0.17588099837303162	-0.0028758524	No	
row_123	MAPK14	17273	-0.17948882281780243	0.0011394377	No	
row_124	WASL	17863	-0.21611066162586212	-0.022986852	No	
row_125	ITGA6	18098	-0.23368415236473083	-0.027924525	No	
row_126	ARPC1A	18333	-0.25764602422714233	-0.0321089	No	
row_127	LIMK2	18444	-0.26828983426094055	-0.02944913	No	
row_128	PRKCI	18546	-0.28108876943588257	-0.02591453	No	
row_129	CDC42SE1	18559	-0.28236332535743713	-0.0176677	No	
row_130	BAIAP2	18630	-0.2943909168243408	-0.012087531	No	
row_131	EXOC6	18645	-0.2967529892921448	-0.003493318	No	
row_132	CFL2	18959	-0.3687836229801178	-0.008331007	No	
row_133	FOS	19168	-0.6357126235961914	7.3497184E-4	No	
