NAME	SYMBOL	RANK IN GENE LIST	RANK METRIC SCORE	RUNNING ES	CORE ENRICHMENT	
row_0	PSMB9	5	1.2339657545089722	0.044956494	Yes	
row_1	CCR5	11	1.0836910009384155	0.084406115	Yes	
row_2	CCL5	12	1.072697401046753	0.12371545	Yes	
row_3	CCL3	72	0.6446416974067688	0.14424014	Yes	
row_4	PSMB8	140	0.5347427129745483	0.16031742	Yes	
row_5	PIK3C2A	153	0.5207538604736328	0.17877042	Yes	
row_6	FAS	181	0.48870211839675903	0.19526115	Yes	
row_7	MAP3K8	258	0.4473252594470978	0.20766236	Yes	
row_8	PIK3R1	264	0.44611459970474243	0.22374779	Yes	
row_9	GSK3B	266	0.4457928240299225	0.2400315	Yes	
row_10	PIK3CD	376	0.3987005949020386	0.24891782	Yes	
row_11	PSMB1	384	0.3957844376564026	0.26305386	Yes	
row_12	MAPK8	385	0.39571133255958557	0.27755484	Yes	
row_13	PIK3R5	409	0.38896363973617554	0.29060066	Yes	
row_14	ATF2	412	0.38812196254730225	0.3047185	Yes	
row_15	NFKBIB	521	0.36470791697502136	0.31241167	Yes	
row_16	PSMB4	657	0.34045612812042236	0.3177982	Yes	
row_17	FASLG	692	0.33477991819381714	0.32828078	Yes	
row_18	PSMA4	896	0.30342569947242737	0.32873926	Yes	
row_19	PSMB2	926	0.2985711991786957	0.33815756	Yes	
row_20	PSMB6	1006	0.2908300459384918	0.3446664	Yes	
row_21	IL18	1014	0.29055362939834595	0.35494623	Yes	
row_22	RELA	1115	0.28014108538627625	0.35996053	Yes	
row_23	PIK3CG	1158	0.2760518193244934	0.36787087	Yes	
row_24	MAP2K2	1323	0.26216304302215576	0.3688654	Yes	
row_25	PSMA5	1328	0.2616863548755646	0.3782449	Yes	
row_26	PSMA3	1373	0.25780853629112244	0.3853817	Yes	
row_27	CASP1	1417	0.2540535628795624	0.3924334	Yes	
row_28	MAP3K9	1502	0.24657092988491058	0.39705777	Yes	
row_29	PSMB7	1549	0.24306578934192657	0.40354928	Yes	
row_30	CREB1	1557	0.24266090989112854	0.41207406	Yes	
row_31	AKT2	1774	0.22947850823402405	0.40914002	Yes	
row_32	PSMB10	2046	0.21386900544166565	0.40274563	Yes	
row_33	KIF3B	2123	0.2093878984451294	0.40642753	Yes	
row_34	CREB3L4	2126	0.20913952589035034	0.4139865	Yes	
row_35	AKT1	2160	0.20700855553150177	0.41983938	Yes	
row_36	MAPK1	2243	0.20163246989250183	0.422922	Yes	
row_37	PSMD4	2331	0.19728007912635803	0.42558253	Yes	
row_38	MAP2K3	2784	0.17063967883586884	0.40809867	No	
row_39	PSMA6	2877	0.16665354371070862	0.40937433	No	
row_40	PTPN11	2913	0.1647045612335205	0.41357192	No	
row_41	IKBKB	3040	0.1585867702960968	0.41276646	No	
row_42	PRKAR1B	3060	0.15733863413333893	0.41753438	No	
row_43	RPS6KA4	3144	0.15262988209724426	0.41876876	No	
row_44	PRKACB	3210	0.1490708589553833	0.420818	No	
row_45	MAP2K1	3312	0.14397671818733215	0.42079002	No	
row_46	MAPRE1	3354	0.14201414585113525	0.42384103	No	
row_47	BNIP3L	3725	0.12285321205854416	0.4089123	No	
row_48	PSMB3	4031	0.10808774083852768	0.39685598	No	
row_49	BNIP3	4204	0.10013418644666672	0.39149275	No	
row_50	PSMA7	4210	0.09993638098239899	0.3948924	No	
row_51	MAP3K13	4218	0.0995851531624794	0.3981741	No	
row_52	PRKAG2	4373	0.09216362237930298	0.3934641	No	
row_53	PSMD1	4471	0.08736082911491394	0.39157146	No	
row_54	CXCR4	4479	0.08692855387926102	0.39438936	No	
row_55	NFKBIE	4604	0.08055708557367325	0.39082947	No	
row_56	CCND1	4618	0.07974441349506378	0.39306903	No	
row_57	CASP8	4789	0.07081586122512817	0.38673648	No	
row_58	MAPK13	4876	0.06616131216287613	0.38464466	No	
row_59	ODC1	4897	0.06472815573215485	0.38596633	No	
row_60	MAP4	4984	0.05960644781589508	0.3836343	No	
row_61	CCND2	5088	0.053847942501306534	0.38019848	No	
row_62	PIK3R4	5263	0.043654702603816986	0.37266052	No	
row_63	CEBPB	5291	0.042020056396722794	0.37278244	No	
row_64	NFKB1	5340	0.039260994642972946	0.3717004	No	
row_65	JUN	5402	0.03542771935462952	0.36979523	No	
row_66	MAP2K6	5464	0.031979039311409	0.36776367	No	
row_67	MAP3K12	5475	0.031216571107506752	0.36838245	No	
row_68	FRS2	5533	0.028324278071522713	0.36642703	No	
row_69	MAP3K7	5541	0.027387171983718872	0.36706302	No	
row_70	MAP3K2	5767	0.013136621564626694	0.35572845	No	
row_71	FGFR4	6720	0.0	0.30573368	No	
row_72	KL	7034	0.0	0.28929633	No	
row_73	KLB	7035	0.0	0.28929633	No	
row_74	MAP3K15	7173	0.0	0.28210172	No	
row_75	MAPK12	7174	0.0	0.28210172	No	
row_76	PLA2G5	7411	0.0	0.26970807	No	
row_77	GRB2	8820	-0.006361112929880619	0.19599935	No	
row_78	CTNNB1	8869	-0.010160108096897602	0.19385092	No	
row_79	RELB	8871	-0.010522766038775444	0.19418402	No	
row_80	PIK3C3	8929	-0.014363964088261127	0.19171701	No	
row_81	MAP3K11	8967	-0.01772921532392502	0.19042362	No	
row_82	GAB1	9037	-0.02271805703639984	0.18763258	No	
row_83	FGFR2	9606	-0.024691488593816757	0.1587086	No	
row_84	TUBB4A	10052	-0.025158744305372238	0.13626115	No	
row_85	IL1B	10763	-0.02610471285879612	0.09993177	No	
row_86	REL	10895	-0.031404610723257065	0.09420307	No	
row_87	MAP2K4	10913	-0.03252284973859787	0.09450212	No	
row_88	MAPK10	11608	-0.040030933916568756	0.05952331	No	
row_89	MAPK3	12128	-0.042033977806568146	0.03380812	No	
row_90	BCL2A1	12157	-0.04422450438141823	0.033958305	No	
row_91	NFKB2	12170	-0.04599066451191902	0.035013463	No	
row_92	IRF3	12186	-0.047520436346530914	0.03596713	No	
row_93	PIK3R3	12470	-0.05162504315376282	0.022997063	No	
row_94	PRKAR2B	12647	-0.05197315290570259	0.01565891	No	
row_95	PIK3CB	13020	-0.06002184748649597	-0.0016773347	No	
row_96	MAP3K10	13242	-0.06193209066987038	-0.011013738	No	
row_97	IL6	13254	-0.06196950748562813	-0.009320515	No	
row_98	PRKACA	13609	-0.06535841524600983	-0.02551592	No	
row_99	FGFR3	13988	-0.07166813313961029	-0.042740475	No	
row_100	ANTXR1	14012	-0.07173029333353043	-0.04131975	No	
row_101	TLR4	14066	-0.07201243937015533	-0.041464154	No	
row_102	MAP3K3	14509	-0.08262483775615692	-0.06164819	No	
row_103	PIK3CA	14601	-0.08709253370761871	-0.063235566	No	
row_104	CCND3	14882	-0.09390679001808167	-0.07449866	No	
row_105	KIF3C	15048	-0.09514062851667404	-0.079677254	No	
row_106	MAPK11	15204	-0.10117390751838684	-0.08410961	No	
row_107	CASP3	15404	-0.10574274510145187	-0.09068522	No	
row_108	MAPK9	15796	-0.11516111344099045	-0.10699866	No	
row_109	MAP3K4	15984	-0.1217590942978859	-0.112357154	No	
row_110	LRP6	16185	-0.13133478164672852	-0.118047446	No	
row_111	IRS1	16451	-0.14198124408721924	-0.12676111	No	
row_112	MAP3K5	16855	-0.1575751155614853	-0.14215046	No	
row_113	FGFR1	16980	-0.1634838581085205	-0.14267147	No	
row_114	ANTXR2	16981	-0.1638106405735016	-0.13666856	No	
row_115	NLRP1	16985	-0.165208637714386	-0.130772	No	
row_116	MAP3K6	17049	-0.16668853163719177	-0.12797211	No	
row_117	RPS6KA5	17252	-0.17719000577926636	-0.13208705	No	
row_118	MAPK14	17273	-0.17948882281780243	-0.12655994	No	
row_119	CREB3	17338	-0.18352822959423065	-0.123195484	No	
row_120	ATM	17398	-0.18561090528964996	-0.11949213	No	
row_121	PIK3C2B	17496	-0.1924484223127365	-0.117533796	No	
row_122	STAT3	17513	-0.19268618524074554	-0.111313	No	
row_123	ATF4	17537	-0.1943027228116989	-0.10540057	No	
row_124	MAP3K14	17778	-0.2087983340024948	-0.11035281	No	
row_125	MAP3K1	17791	-0.21107597649097443	-0.103248045	No	
row_126	KIF1C	17895	-0.21914300322532654	-0.10062657	No	
row_127	PRKAR1A	18044	-0.2299175262451172	-0.09997346	No	
row_128	CREB5	18127	-0.23465442657470703	-0.09568075	No	
row_129	AKT3	18192	-0.2415180802345276	-0.09019123	No	
row_130	CASP6	18305	-0.25475940108299255	-0.08673723	No	
row_131	PSMB5	18527	-0.27796670794487	-0.088156976	No	
row_132	PLA2G2A	18558	-0.2819565236568451	-0.079400055	No	
row_133	KIF5C	18768	-0.31833210587501526	-0.07871041	No	
row_134	PRKAG1	18789	-0.32103294134140015	-0.06799637	No	
row_135	TNF	18814	-0.32652923464775085	-0.057290968	No	
row_136	NFKBIA	18835	-0.33279433846473694	-0.046145923	No	
row_137	PRKAR2A	18912	-0.35344183444976807	-0.03718511	No	
row_138	CXCL12	18968	-0.37230226397514343	-0.026430327	No	
row_139	IRS2	19007	-0.3893505930900574	-0.01415804	No	
row_140	FOS	19168	-0.6357126235961914	7.353732E-4	No	
