NAME	SYMBOL	RANK IN GENE LIST	RANK METRIC SCORE	RUNNING ES	CORE ENRICHMENT	
row_0	CCL5	12	1.072697401046753	0.07213682	Yes	
row_1	CCL4	21	0.9141626358032227	0.13372913	Yes	
row_2	ITGA4	65	0.6662702560424805	0.17667226	Yes	
row_3	CCL3	72	0.6446416974067688	0.22008663	Yes	
row_4	VCAM1	96	0.5954503417015076	0.25927353	Yes	
row_5	MSN	195	0.48454684019088745	0.28700823	Yes	
row_6	ITGAL	296	0.4311063587665558	0.31101307	Yes	
row_7	TNFRSF1B	357	0.40670567750930786	0.33545825	Yes	
row_8	CD99	398	0.39086902141571045	0.35987693	Yes	
row_9	GNAI2	454	0.37828248739242554	0.382656	Yes	
row_10	EZR	893	0.30374273657798767	0.38031378	Yes	
row_11	CLDN7	991	0.2920541763305664	0.39504328	Yes	
row_12	IL18	1014	0.29055362939834595	0.41360018	Yes	
row_13	ICAM1	1688	0.23367930948734283	0.39419386	Yes	
row_14	SELPLG	1905	0.22180861234664917	0.39792404	Yes	
row_15	ITGA2	1965	0.21844851970672607	0.40965137	Yes	
row_16	ITGA1	2267	0.2006392776966095	0.4074925	Yes	
row_17	ITGB1	2268	0.2006240040063858	0.42110163	Yes	
row_18	CXCL5	2405	0.19303055107593536	0.4270708	Yes	
row_19	GNAI3	2432	0.19149670004844666	0.4386987	Yes	
row_20	ITGAM	2482	0.18883171677589417	0.44894087	Yes	
row_21	RDX	2751	0.17235490679740906	0.44659218	No	
row_22	MMP9	3457	0.13703246414661407	0.41895345	No	
row_23	HSPB1	4000	0.1096247136592865	0.39799497	No	
row_24	CXCR4	4479	0.08692855387926102	0.37884977	No	
row_25	ITGA5	5684	0.018107475712895393	0.3170018	No	
row_26	CCL7	6348	0.0	0.28226793	No	
row_27	CLDN1	6400	0.0	0.2795961	No	
row_28	CLDN11	6401	0.0	0.2795961	No	
row_29	CLDN14	6402	0.0	0.2795961	No	
row_30	CLDN23	6403	0.0	0.2795961	No	
row_31	CXCL11	6553	0.0	0.27179015	No	
row_32	FPR1	6743	0.0	0.26188862	No	
row_33	MMP15	7216	0.0	0.23716106	No	
row_34	MMP16	7217	0.0	0.23716106	No	
row_35	MMP8	7218	0.0	0.23716106	No	
row_36	OPN1SW	7326	0.0	0.23155543	No	
row_37	GNAI1	9109	-0.023461785167455673	0.13978986	No	
row_38	FPR3	9681	-0.024793531745672226	0.11155763	No	
row_39	CLDN2	9817	-0.024936096742749214	0.106176645	No	
row_40	CCL13	9889	-0.025023432448506355	0.10415447	No	
row_41	MMP7	9951	-0.025089263916015625	0.102660656	No	
row_42	MMP13	9975	-0.02511630393564701	0.10315945	No	
row_43	MMP23B	10078	-0.025172648951411247	0.09952334	No	
row_44	CLDN5	10357	-0.02544107288122177	0.086684994	No	
row_45	CSF3R	10419	-0.025494758039712906	0.08521868	No	
row_46	MMP14	10593	-0.025758951902389526	0.077902734	No	
row_47	CCL8	10654	-0.025835365056991577	0.07651191	No	
row_48	MMP17	10712	-0.025979382917284966	0.075288035	No	
row_49	IL1B	10763	-0.02610471285879612	0.07443938	No	
row_50	GLG1	10934	-0.034027617424726486	0.06784149	No	
row_51	ITGB2	10938	-0.03411008045077324	0.06999815	No	
row_52	HRH1	11172	-0.03922853246331215	0.06045256	No	
row_53	CXCL6	11189	-0.03926277160644531	0.062277697	No	
row_54	SDC3	11234	-0.039378486573696136	0.06264379	No	
row_55	MMP11	11810	-0.04027815908193588	0.03525238	No	
row_56	MMP24	11815	-0.04028170928359032	0.0377753	No	
row_57	MMP28	11983	-0.04059808328747749	0.031780284	No	
row_58	FPR2	12834	-0.05245858058333397	-0.009191829	No	
row_59	TNFRSF11B	12851	-0.05250738188624382	-0.0064682597	No	
row_60	IL1R2	12930	-0.052965134382247925	-0.0069617536	No	
row_61	IL1A	13154	-0.061660636216402054	-0.014461791	No	
row_62	SDC1	13462	-0.06252019107341766	-0.026304193	No	
row_63	IL1RN	13572	-0.06308576464653015	-0.027735218	No	
row_64	CXCL3	13996	-0.07169154286384583	-0.045032606	No	
row_65	CXCL9	14011	-0.07172859460115433	-0.040900405	No	
row_66	CXCL10	14498	-0.08071227371692657	-0.06088638	No	
row_67	THY1	14706	-0.08760831505060196	-0.06578806	No	
row_68	MMP25	14772	-0.08789414167404175	-0.06323112	No	
row_69	CXCL1	14818	-0.08824293315410614	-0.059602737	No	
row_70	CXCR2	14884	-0.09392612427473068	-0.05663662	No	
row_71	CLDN12	14935	-0.09449265152215958	-0.05284624	No	
row_72	HRH2	14987	-0.09478506445884705	-0.049088415	No	
row_73	NGFR	15051	-0.09516122937202454	-0.045933742	No	
row_74	CCL2	15215	-0.10124940425157547	-0.047604974	No	
row_75	C5AR1	15230	-0.10134581476449966	-0.041463714	No	
row_76	MMP19	15301	-0.10175921022891998	-0.03822819	No	
row_77	C5	15362	-0.1022447869181633	-0.034435842	No	
row_78	MMP1	15537	-0.10831296443939209	-0.036204204	No	
row_79	CXCL2	15962	-0.12087145447731018	-0.0502179	No	
row_80	SELP	16119	-0.1265975832939148	-0.04980294	No	
row_81	TNFRSF1A	16658	-0.14796988666057587	-0.06795078	No	
row_82	SDC2	16661	-0.14810994267463684	-0.05800865	No	
row_83	IL1R1	16662	-0.14811202883720398	-0.0479616	No	
row_84	ICAM2	16781	-0.15492673218250275	-0.043634176	No	
row_85	ITGA3	17241	-0.17588099837303162	-0.055749964	No	
row_86	JAM3	17564	-0.1962791234254837	-0.05930478	No	
row_87	MMP3	17944	-0.22053182125091553	-0.0642006	No	
row_88	MMP2	18082	-0.2311335951089859	-0.055699144	No	
row_89	ITGA6	18098	-0.23368415236473083	-0.040633217	No	
row_90	CLDN15	18163	-0.23826275765895844	-0.027823765	No	
row_91	SDC4	18191	-0.24144338071346283	-0.012860167	No	
row_92	SELL	18299	-0.2537935674190521	-0.0012499181	No	
row_93	TNF	18814	-0.32652923464775085	-0.0060280077	No	
row_94	CXCL12	18968	-0.37230226397514343	0.011211283	No	
