NAME	SYMBOL	RANK IN GENE LIST	RANK METRIC SCORE	RUNNING ES	CORE ENRICHMENT	
row_0	PRKCH	71	0.6448864340782166	0.117951706	Yes	
row_1	TSG101	297	0.43108972907066345	0.18752696	Yes	
row_2	LMNB1	442	0.38172104954719543	0.25201908	Yes	
row_3	SH3GLB1	701	0.3338831961154938	0.30153248	Yes	
row_4	SNF8	1049	0.2870528995990753	0.33756298	Yes	
row_5	CHMP4B	1121	0.27933308482170105	0.3865519	Yes	
row_6	PRKCB	1613	0.23913121223449707	0.40602106	Yes	
row_7	SH3GLB2	2168	0.2066178321838379	0.4160661	Yes	
row_8	VPS4A	2872	0.16684570908546448	0.41082615	Yes	
row_9	CHMP3	3056	0.15756385028362274	0.43099344	Yes	
row_10	CHMP2A	3259	0.14628230035305023	0.4480401	Yes	
row_11	ACTG1	3827	0.11854538321495056	0.44079107	Yes	
row_12	LMNB2	3912	0.11456380784511566	0.45801678	Yes	
row_13	PRKCD	3949	0.11204315721988678	0.47727388	Yes	
row_14	ACTB	4052	0.10716047883033752	0.49216282	Yes	
row_15	PRKCZ	4162	0.10190033912658691	0.50569385	Yes	
row_16	ACTA2	4486	0.08663799613714218	0.5051689	No	
row_17	VPS28	4973	0.06032435968518257	0.4911667	No	
row_18	PRKCQ	5165	0.04916708916425705	0.4904668	No	
row_19	PDCD6IP	5636	0.021045779809355736	0.4698902	No	
row_20	PRKCE	5642	0.02055404521524906	0.47350666	No	
row_21	ACTC1	6081	0.0	0.45063102	No	
row_22	CHMP4C	6390	0.0	0.43454495	No	
row_23	PRKD1	7447	0.0	0.3793927	No	
row_24	SH3GL2	8362	0.0	0.33165675	No	
row_25	VPS36	8803	-0.004676383920013905	0.30955887	No	
row_26	PRKCG	9714	-0.024821285158395767	0.26671445	No	
row_27	ACTA1	11905	-0.040432609617710114	0.15996397	No	
row_28	CHMP2B	12109	-0.04123200848698616	0.15714033	No	
row_29	CHMP4A	12134	-0.04267609491944313	0.16393785	No	
row_30	PRKCA	15399	-0.10511942952871323	0.013298388	No	
row_31	VPS37C	16222	-0.13175274431705475	-0.0047770496	No	
row_32	NEDD4	16841	-0.15731652081012726	-0.0073753903	No	
row_33	CHMP6	17166	-0.1748027354478836	0.008679984	No	
row_34	VPS25	18053	-0.23046433925628662	0.0058842376	No	
row_35	PRKCI	18546	-0.28108876943588257	0.03321659	No	
