NAME	SYMBOL	RANK IN GENE LIST	RANK METRIC SCORE	RUNNING ES	CORE ENRICHMENT	
row_0	IFNG	22	0.9130397439002991	0.19675122	Yes	
row_1	PDCD1	38	0.7830750942230225	0.3656982	Yes	
row_2	PTEN	76	0.635358989238739	0.50148004	Yes	
row_3	HLA-C	1839	0.22552604973316193	0.45841905	Yes	
row_4	HLA-A	2280	0.1999693214893341	0.4788022	Yes	
row_5	PTPN11	2913	0.1647045612335205	0.48152304	Yes	
row_6	HLA-B	2993	0.16088032722473145	0.51227117	Yes	
row_7	CD247	3243	0.1472843587398529	0.5312016	Yes	
row_8	CSK	3724	0.12287450581789017	0.5327874	Yes	
row_9	IFNGR1	3992	0.11019041389226913	0.5427385	Yes	
row_10	B2M	4059	0.10678593069314957	0.56244016	Yes	
row_11	LCK	5653	0.01984763704240322	0.48361748	No	
row_12	ZAP70	10745	-0.026047181338071823	0.22360879	No	
row_13	PDCD1LG2	12788	-0.05231800302863121	0.12839463	No	
row_14	CD80	13239	-0.06192421540617943	0.11833503	No	
row_15	CD28	14147	-0.07675895094871521	0.087644026	No	
row_16	CD274	16844	-0.1573883593082428	-0.018922864	No	
row_17	IFNGR2	18064	-0.23071952164173126	-0.032523803	No	
row_18	CSNK2A1	19059	-0.41896679997444153	0.006418179	No	
