NAME	SYMBOL	RANK IN GENE LIST	RANK METRIC SCORE	RUNNING ES	CORE ENRICHMENT	
row_0	IFNG	22	0.9130397439002991	0.24925551	Yes	
row_1	IL32	70	0.6463073492050171	0.42405444	Yes	
row_2	IL18	1014	0.29055362939834595	0.45453265	Yes	
row_3	IFNL1	1139	0.27749353647232056	0.5241655	Yes	
row_4	TGFB1	2316	0.19817988574504852	0.5171518	No	
row_5	IL12A	6955	0.0	0.27513552	No	
row_6	IL12B	6956	0.0	0.27513552	No	
row_7	IL1B	10763	-0.02610471285879612	0.08369324	No	
row_8	IL26	11981	-0.040593285113573074	0.031321567	No	
row_9	IL2	12961	-0.05424271896481514	-0.0048876	No	
row_10	IL1A	13154	-0.061660636216402054	0.002004201	No	
row_11	IL6	13254	-0.06196950748562813	0.013833561	No	
row_12	IL1RN	13572	-0.06308576464653015	0.014593561	No	
row_13	IL21	13962	-0.071556955575943	0.013919762	No	
row_14	IL10	14822	-0.08831577748060226	-0.006683038	No	
row_15	IL24	15198	-0.10115012526512146	0.001489703	No	
row_16	IL15	15532	-0.10827182233333588	0.013807197	No	
row_17	IL23A	18748	-0.3172192871570587	-0.06695708	No	
row_18	TNF	18814	-0.32652923464775085	0.019202625	No	
